%YAML 1.1
%TAG !u! tag:unity3d.com,2011:
--- !u!21 &2100000
Material:
  serializedVersion: 8
  m_ObjectHideFlags: 0
  m_CorrespondingSourceObject: {fileID: 0}
  m_PrefabInstance: {fileID: 0}
  m_PrefabAsset: {fileID: 0}
  m_Name: ShaderWaterMaterial
  m_Shader: {fileID: -6465566751694194690, guid: 83b722c22e6f73b428a8c2fa540cdc5a,
    type: 3}
  m_Parent: {fileID: 0}
  m_ModifiedSerializedProperties: 0
  m_ValidKeywords:
  - _SURFACE_TYPE_TRANSPARENT
  m_InvalidKeywords: []
  m_LightmapFlags: 4
  m_EnableInstancingVariants: 0
  m_DoubleSidedGI: 0
  m_CustomRenderQueue: -1
  stringTagMap:
    RenderType: Transparent
  disabledShaderPasses:
  - DepthOnly
  m_LockedProperties: 
  m_SavedProperties:
    serializedVersion: 3
    m_TexEnvs:
    - _ReflectionCubeMap:
        m_Texture: {fileID: 8900000, guid: ed1f3879f1a29f4428c6ea18c84887b6, type: 3}
        m_Scale: {x: 1, y: 1}
        m_Offset: {x: 0, y: 0}
    - _ReflectionMap:
        m_Texture: {fileID: 2800000, guid: 7ddf0d62f9d2ddc4babdd380680fd052, type: 3}
        m_Scale: {x: 1, y: 1}
        m_Offset: {x: 0, y: 0}
    - _SampleTexture2DLOD_952a210f3bdf496ab1980894e1e95951_Texture_1_Texture2D:
        m_Texture: {fileID: 2800000, guid: ca401e9677808ba40868420b829e3044, type: 3}
        m_Scale: {x: 1, y: 1}
        m_Offset: {x: 0, y: 0}
    - _SampleTexture2DLOD_eb603b329fa14b669b426edf31dce315_Texture_1_Texture2D:
        m_Texture: {fileID: 2800000, guid: a217bbc523cd6bb4d92b663dfc4277cb, type: 3}
        m_Scale: {x: 1, y: 1}
        m_Offset: {x: 0, y: 0}
    - _SampleTexture2D_27499d0e0191467681e4b97f97ff99d6_Texture_1_Texture2D:
        m_Texture: {fileID: 2800000, guid: ca401e9677808ba40868420b829e3044, type: 3}
        m_Scale: {x: 1, y: 1}
        m_Offset: {x: 0, y: 0}
    - _SampleTexture2D_3699e961949a4f2680c5f5434285b705_Texture_1_Texture2D:
        m_Texture: {fileID: 2800000, guid: a217bbc523cd6bb4d92b663dfc4277cb, type: 3}
        m_Scale: {x: 1, y: 1}
        m_Offset: {x: 0, y: 0}
    - _Texture2DAsset_2d2efcbb242248769427e504c60d543b_Out_0_Texture2D:
        m_Texture: {fileID: 2800000, guid: c264b5958a561a14494bccf472b2b39c, type: 3}
        m_Scale: {x: 1, y: 1}
        m_Offset: {x: 0, y: 0}
    - unity_Lightmaps:
        m_Texture: {fileID: 0}
        m_Scale: {x: 1, y: 1}
        m_Offset: {x: 0, y: 0}
    - unity_LightmapsInd:
        m_Texture: {fileID: 0}
        m_Scale: {x: 1, y: 1}
        m_Offset: {x: 0, y: 0}
    - unity_ShadowMasks:
        m_Texture: {fileID: 0}
        m_Scale: {x: 1, y: 1}
        m_Offset: {x: 0, y: 0}
    m_Ints: []
    m_Floats:
    - _AlphaClip: 0
    - _AlphaToMask: 0
    - _Blend: 0
    - _CastShadows: 1
    - _Cull: 2
    - _Dosplacement: 0.3
    - _DstBlend: 10
    - _LightPower: 2.24
    - _QueueControl: 0
    - _QueueOffset: 0
    - _SrcBlend: 5
    - _Surface: 1
    - _Velocity: 0
    - _ZTest: 4
    - _ZWrite: 0
    - _ZWriteControl: 0
    m_Colors:
    - _DeepColor: {r: 0, g: 0.01148649, b: 0.085, a: 0}
    - _FoamColor: {r: 0.5536636, g: 0.5850086, b: 1.1178732, a: 0}
    - _FoamPower: {r: 2.79, g: 3.16, b: 0, a: 0}
    - _RefractAmount: {r: 1, g: 1, b: 0, a: 0}
    - _ShadowColor: {r: 0.446348, g: 0.6223643, b: 0.839, a: 1}
    - _Velocity: {r: 0.1, g: 0.1, b: 0, a: 0}
    - _WaterAbrosrtion: {r: -0.96, g: 6.67, b: 0, a: 0}
  m_BuildTextureStacks: []
--- !u!114 &2399068630135334224
MonoBehaviour:
  m_ObjectHideFlags: 11
  m_CorrespondingSourceObject: {fileID: 0}
  m_PrefabInstance: {fileID: 0}
  m_PrefabAsset: {fileID: 0}
  m_GameObject: {fileID: 0}
  m_Enabled: 1
  m_EditorHideFlags: 0
  m_Script: {fileID: 11500000, guid: d0353a89b1f911e48b9e16bdc9f2e058, type: 3}
  m_Name: 
  m_EditorClassIdentifier: 
  version: 7
