%YAML 1.1
%TAG !u! tag:unity3d.com,2011:
--- !u!114 &-8153326626131729531
MonoBehaviour:
  m_ObjectHideFlags: 3
  m_CorrespondingSourceObject: {fileID: 0}
  m_PrefabInstance: {fileID: 0}
  m_PrefabAsset: {fileID: 0}
  m_GameObject: {fileID: 0}
  m_Enabled: 1
  m_EditorHideFlags: 0
  m_Script: {fileID: 11500000, guid: 2f968044e28af1143a38d64315072bb5, type: 3}
  m_Name: CustomChromaticAberration
  m_EditorClassIdentifier: 
  active: 0
  redShift:
    m_OverrideState: 1
    m_Value: 0.603
  greenShift:
    m_OverrideState: 1
    m_Value: 0.614
  blueShift:
    m_OverrideState: 1
    m_Value: 0.385
--- !u!114 &-7893295128165547882
MonoBehaviour:
  m_ObjectHideFlags: 3
  m_CorrespondingSourceObject: {fileID: 0}
  m_PrefabInstance: {fileID: 0}
  m_PrefabAsset: {fileID: 0}
  m_GameObject: {fileID: 0}
  m_Enabled: 1
  m_EditorHideFlags: 0
  m_Script: {fileID: 11500000, guid: 0b2db86121404754db890f4c8dfe81b2, type: 3}
  m_Name: Bloom
  m_EditorClassIdentifier: 
  active: 0
  skipIterations:
    m_OverrideState: 0
    m_Value: 1
  threshold:
    m_OverrideState: 1
    m_Value: 3.61
  intensity:
    m_OverrideState: 1
    m_Value: 3.28
  scatter:
    m_OverrideState: 0
    m_Value: 0.7
  clamp:
    m_OverrideState: 0
    m_Value: 65472
  tint:
    m_OverrideState: 0
    m_Value: {r: 1, g: 1, b: 1, a: 1}
  highQualityFiltering:
    m_OverrideState: 0
    m_Value: 0
  downscale:
    m_OverrideState: 0
    m_Value: 0
  maxIterations:
    m_OverrideState: 0
    m_Value: 6
  dirtTexture:
    m_OverrideState: 0
    m_Value: {fileID: 0}
    dimension: 1
  dirtIntensity:
    m_OverrideState: 0
    m_Value: 0
--- !u!114 &-7011558710299706105
MonoBehaviour:
  m_ObjectHideFlags: 3
  m_CorrespondingSourceObject: {fileID: 0}
  m_PrefabInstance: {fileID: 0}
  m_PrefabAsset: {fileID: 0}
  m_GameObject: {fileID: 0}
  m_Enabled: 1
  m_EditorHideFlags: 0
  m_Script: {fileID: 11500000, guid: 899c54efeace73346a0a16faa3afe726, type: 3}
  m_Name: Vignette
  m_EditorClassIdentifier: 
  active: 0
  color:
    m_OverrideState: 0
    m_Value: {r: 0, g: 0, b: 0, a: 1}
  center:
    m_OverrideState: 0
    m_Value: {x: 0.5, y: 0.5}
  intensity:
    m_OverrideState: 1
    m_Value: 0
  smoothness:
    m_OverrideState: 1
    m_Value: 0.4
  rounded:
    m_OverrideState: 0
    m_Value: 0
--- !u!114 &11400000
MonoBehaviour:
  m_ObjectHideFlags: 0
  m_CorrespondingSourceObject: {fileID: 0}
  m_PrefabInstance: {fileID: 0}
  m_PrefabAsset: {fileID: 0}
  m_GameObject: {fileID: 0}
  m_Enabled: 1
  m_EditorHideFlags: 0
  m_Script: {fileID: 11500000, guid: d7fd9488000d3734a9e00ee676215985, type: 3}
  m_Name: SampleSceneProfile
  m_EditorClassIdentifier: 
  components:
  - {fileID: 849379129802519247}
  - {fileID: -7893295128165547882}
  - {fileID: -7011558710299706105}
  - {fileID: -8153326626131729531}
  - {fileID: 5930608101087931765}
  - {fileID: 7658874969939494188}
  - {fileID: 4387500873775251475}
  - {fileID: 4002595257545993545}
--- !u!114 &849379129802519247
MonoBehaviour:
  m_ObjectHideFlags: 3
  m_CorrespondingSourceObject: {fileID: 0}
  m_PrefabInstance: {fileID: 0}
  m_PrefabAsset: {fileID: 0}
  m_GameObject: {fileID: 0}
  m_Enabled: 1
  m_EditorHideFlags: 0
  m_Script: {fileID: 11500000, guid: 97c23e3b12dc18c42a140437e53d3951, type: 3}
  m_Name: Tonemapping
  m_EditorClassIdentifier: 
  active: 0
  mode:
    m_OverrideState: 1
    m_Value: 1
  neutralHDRRangeReductionMode:
    m_OverrideState: 0
    m_Value: 2
  acesPreset:
    m_OverrideState: 0
    m_Value: 3
  hueShiftAmount:
    m_OverrideState: 0
    m_Value: 0
  detectPaperWhite:
    m_OverrideState: 0
    m_Value: 0
  paperWhite:
    m_OverrideState: 0
    m_Value: 300
  detectBrightnessLimits:
    m_OverrideState: 0
    m_Value: 1
  minNits:
    m_OverrideState: 0
    m_Value: 0.005
  maxNits:
    m_OverrideState: 0
    m_Value: 1000
--- !u!114 &4002595257545993545
MonoBehaviour:
  m_ObjectHideFlags: 3
  m_CorrespondingSourceObject: {fileID: 0}
  m_PrefabInstance: {fileID: 0}
  m_PrefabAsset: {fileID: 0}
  m_GameObject: {fileID: 0}
  m_Enabled: 1
  m_EditorHideFlags: 0
  m_Script: {fileID: 11500000, guid: b042373954c49ae418f8b7d5a63a9cee, type: 3}
  m_Name: DephFongShadows
  m_EditorClassIdentifier: 
  active: 0
  weight:
    m_OverrideState: 0
    m_Value: 0
  nearDistance:
    m_OverrideState: 0
    m_Value: 0
  farDistance:
    m_OverrideState: 0
    m_Value: 10
  fogColor:
    m_OverrideState: 0
    m_Value: {r: 0.29, g: 0.69, b: 0, a: 1}
--- !u!114 &4387500873775251475
MonoBehaviour:
  m_ObjectHideFlags: 3
  m_CorrespondingSourceObject: {fileID: 0}
  m_PrefabInstance: {fileID: 0}
  m_PrefabAsset: {fileID: 0}
  m_GameObject: {fileID: 0}
  m_Enabled: 1
  m_EditorHideFlags: 0
  m_Script: {fileID: 11500000, guid: a0bb44fe87431ed4791f6ec05e1faae0, type: 3}
  m_Name: CustomDepthOfField
  m_EditorClassIdentifier: 
  active: 0
  blurAmount:
    m_OverrideState: 1
    m_Value: 10
  blurDistance:
    m_OverrideState: 1
    m_Value: 12
  focalPoint:
    m_OverrideState: 1
    m_Value: 5.6
  aperture:
    m_OverrideState: 1
    m_Value: 200.59
--- !u!114 &5930608101087931765
MonoBehaviour:
  m_ObjectHideFlags: 3
  m_CorrespondingSourceObject: {fileID: 0}
  m_PrefabInstance: {fileID: 0}
  m_PrefabAsset: {fileID: 0}
  m_GameObject: {fileID: 0}
  m_Enabled: 1
  m_EditorHideFlags: 0
  m_Script: {fileID: 11500000, guid: 61d3a66b89d7c114abe1a556d64c2fb9, type: 3}
  m_Name: RadialTextureVignetteMasked
  m_EditorClassIdentifier: 
  active: 0
  vignetteMaskIntensity:
    m_OverrideState: 1
    m_Value: 13.72
  vignettePower:
    m_OverrideState: 1
    m_Value: 10.63
  overlayTexture:
    m_OverrideState: 1
    m_Value: {fileID: 2800000, guid: e5c91deb0e893294c93f4d110eecf3d9, type: 3}
  overlayTextureTint:
    m_OverrideState: 1
    m_Value: {r: 1, g: 0.18339846, b: 0.031372547, a: 1}
  overlayTextureVelocity:
    m_OverrideState: 1
    m_Value: {x: 1.53, y: 0.28}
--- !u!114 &7658874969939494188
MonoBehaviour:
  m_ObjectHideFlags: 3
  m_CorrespondingSourceObject: {fileID: 0}
  m_PrefabInstance: {fileID: 0}
  m_PrefabAsset: {fileID: 0}
  m_GameObject: {fileID: 0}
  m_Enabled: 1
  m_EditorHideFlags: 0
  m_Script: {fileID: 11500000, guid: 1510a15166bee8e40b96cab0f5ff191f, type: 3}
  m_Name: ScreenSpaceDistortion
  m_EditorClassIdentifier: 
  active: 0
  distortionAmount:
    m_OverrideState: 1
    m_Value: 0.138
  distortionNormalMap:
    m_OverrideState: 1
    m_Value: {fileID: 2800000, guid: 156325a34acb30a47afea501b2734613, type: 3}
  distortionVelocity:
    m_OverrideState: 1
    m_Value: {x: 0.55, y: 0.24}
