{
    "m_SGVersion": 3,
    "m_Type": "UnityEditor.ShaderGraph.GraphData",
    "m_ObjectId": "9059820c8837430da66493863fc78dc3",
    "m_Properties": [
        {
            "m_Id": "06c884b5cbe64ab795d435cec3774c3d"
        },
        {
            "m_Id": "e7217c8f02414002acaf9a4eb977cb48"
        },
        {
            "m_Id": "933cf430909f40a68ad631091492b4fc"
        },
        {
            "m_Id": "c106b7a8daa54c5d91dd14323b768825"
        }
    ],
    "m_Keywords": [],
    "m_Dropdowns": [],
    "m_CategoryData": [
        {
            "m_Id": "15785edb96764f18b6bec900ef743361"
        }
    ],
    "m_Nodes": [
        {
            "m_Id": "086c6c4811174bc3b96a67ceef64c6cc"
        },
        {
            "m_Id": "c2ed930d7f304bd8a20ce9edd13a7bf8"
        },
        {
            "m_Id": "5093e7607d5b4ee5adef1ed7422ee090"
        },
        {
            "m_Id": "b7429400ff7c434e9816894bad1ac4b3"
        },
        {
            "m_Id": "344c0f57d79143d4897b462eb6895b5b"
        },
        {
            "m_Id": "e6c76fd3a3044e4388d124d4d6af68fc"
        },
        {
            "m_Id": "7051d17ccd124d849d396a32c6f6a86b"
        },
        {
            "m_Id": "a51ffdde91fe42f08c994c8c178fbaf9"
        },
        {
            "m_Id": "f0197c5f782a485da1f68da7d3cb2aad"
        },
        {
            "m_Id": "eae36dd7bdee409f8bb3c3627f457cc0"
        },
        {
            "m_Id": "40ba2d51e8b74ed3a5aacb3c37aff61b"
        },
        {
            "m_Id": "5c6f823f3977455dbe36e4ef26109f5d"
        },
        {
            "m_Id": "296edca634874fd5883ae1723a75519f"
        },
        {
            "m_Id": "56c7253d0ed44893827e6f8f7aaadb40"
        },
        {
            "m_Id": "a022411710ed44c7b2e757287839f65c"
        },
        {
            "m_Id": "0e584c16cba34fe59e08ba18e57cdd7f"
        },
        {
            "m_Id": "8a81a2a0601b496e96ca793e05be2cd4"
        },
        {
            "m_Id": "ae5131d809d84654b0f97f006ff15a6a"
        },
        {
            "m_Id": "7911165b8adf410eb31cc2a4d6db5360"
        },
        {
            "m_Id": "0271a604e8eb482783749484b665663d"
        }
    ],
    "m_GroupDatas": [],
    "m_StickyNoteDatas": [],
    "m_Edges": [
        {
            "m_OutputSlot": {
                "m_Node": {
                    "m_Id": "0271a604e8eb482783749484b665663d"
                },
                "m_SlotId": 2
            },
            "m_InputSlot": {
                "m_Node": {
                    "m_Id": "b7429400ff7c434e9816894bad1ac4b3"
                },
                "m_SlotId": 0
            }
        },
        {
            "m_OutputSlot": {
                "m_Node": {
                    "m_Id": "0e584c16cba34fe59e08ba18e57cdd7f"
                },
                "m_SlotId": 2
            },
            "m_InputSlot": {
                "m_Node": {
                    "m_Id": "0271a604e8eb482783749484b665663d"
                },
                "m_SlotId": 1
            }
        },
        {
            "m_OutputSlot": {
                "m_Node": {
                    "m_Id": "296edca634874fd5883ae1723a75519f"
                },
                "m_SlotId": 2
            },
            "m_InputSlot": {
                "m_Node": {
                    "m_Id": "7911165b8adf410eb31cc2a4d6db5360"
                },
                "m_SlotId": 0
            }
        },
        {
            "m_OutputSlot": {
                "m_Node": {
                    "m_Id": "40ba2d51e8b74ed3a5aacb3c37aff61b"
                },
                "m_SlotId": 2
            },
            "m_InputSlot": {
                "m_Node": {
                    "m_Id": "a022411710ed44c7b2e757287839f65c"
                },
                "m_SlotId": 0
            }
        },
        {
            "m_OutputSlot": {
                "m_Node": {
                    "m_Id": "56c7253d0ed44893827e6f8f7aaadb40"
                },
                "m_SlotId": 0
            },
            "m_InputSlot": {
                "m_Node": {
                    "m_Id": "296edca634874fd5883ae1723a75519f"
                },
                "m_SlotId": 1
            }
        },
        {
            "m_OutputSlot": {
                "m_Node": {
                    "m_Id": "5c6f823f3977455dbe36e4ef26109f5d"
                },
                "m_SlotId": 2
            },
            "m_InputSlot": {
                "m_Node": {
                    "m_Id": "0e584c16cba34fe59e08ba18e57cdd7f"
                },
                "m_SlotId": 0
            }
        },
        {
            "m_OutputSlot": {
                "m_Node": {
                    "m_Id": "7051d17ccd124d849d396a32c6f6a86b"
                },
                "m_SlotId": 0
            },
            "m_InputSlot": {
                "m_Node": {
                    "m_Id": "a51ffdde91fe42f08c994c8c178fbaf9"
                },
                "m_SlotId": 1
            }
        },
        {
            "m_OutputSlot": {
                "m_Node": {
                    "m_Id": "7911165b8adf410eb31cc2a4d6db5360"
                },
                "m_SlotId": 2
            },
            "m_InputSlot": {
                "m_Node": {
                    "m_Id": "0271a604e8eb482783749484b665663d"
                },
                "m_SlotId": 0
            }
        },
        {
            "m_OutputSlot": {
                "m_Node": {
                    "m_Id": "8a81a2a0601b496e96ca793e05be2cd4"
                },
                "m_SlotId": 0
            },
            "m_InputSlot": {
                "m_Node": {
                    "m_Id": "a022411710ed44c7b2e757287839f65c"
                },
                "m_SlotId": 1
            }
        },
        {
            "m_OutputSlot": {
                "m_Node": {
                    "m_Id": "a022411710ed44c7b2e757287839f65c"
                },
                "m_SlotId": 2
            },
            "m_InputSlot": {
                "m_Node": {
                    "m_Id": "7911165b8adf410eb31cc2a4d6db5360"
                },
                "m_SlotId": 1
            }
        },
        {
            "m_OutputSlot": {
                "m_Node": {
                    "m_Id": "a51ffdde91fe42f08c994c8c178fbaf9"
                },
                "m_SlotId": 0
            },
            "m_InputSlot": {
                "m_Node": {
                    "m_Id": "f0197c5f782a485da1f68da7d3cb2aad"
                },
                "m_SlotId": 0
            }
        },
        {
            "m_OutputSlot": {
                "m_Node": {
                    "m_Id": "ae5131d809d84654b0f97f006ff15a6a"
                },
                "m_SlotId": 0
            },
            "m_InputSlot": {
                "m_Node": {
                    "m_Id": "0e584c16cba34fe59e08ba18e57cdd7f"
                },
                "m_SlotId": 1
            }
        },
        {
            "m_OutputSlot": {
                "m_Node": {
                    "m_Id": "eae36dd7bdee409f8bb3c3627f457cc0"
                },
                "m_SlotId": 2
            },
            "m_InputSlot": {
                "m_Node": {
                    "m_Id": "296edca634874fd5883ae1723a75519f"
                },
                "m_SlotId": 0
            }
        },
        {
            "m_OutputSlot": {
                "m_Node": {
                    "m_Id": "f0197c5f782a485da1f68da7d3cb2aad"
                },
                "m_SlotId": 1
            },
            "m_InputSlot": {
                "m_Node": {
                    "m_Id": "40ba2d51e8b74ed3a5aacb3c37aff61b"
                },
                "m_SlotId": 0
            }
        },
        {
            "m_OutputSlot": {
                "m_Node": {
                    "m_Id": "f0197c5f782a485da1f68da7d3cb2aad"
                },
                "m_SlotId": 1
            },
            "m_InputSlot": {
                "m_Node": {
                    "m_Id": "5c6f823f3977455dbe36e4ef26109f5d"
                },
                "m_SlotId": 0
            }
        },
        {
            "m_OutputSlot": {
                "m_Node": {
                    "m_Id": "f0197c5f782a485da1f68da7d3cb2aad"
                },
                "m_SlotId": 1
            },
            "m_InputSlot": {
                "m_Node": {
                    "m_Id": "eae36dd7bdee409f8bb3c3627f457cc0"
                },
                "m_SlotId": 0
            }
        }
    ],
    "m_VertexContext": {
        "m_Position": {
            "x": 0.0,
            "y": 0.0
        },
        "m_Blocks": [
            {
                "m_Id": "086c6c4811174bc3b96a67ceef64c6cc"
            },
            {
                "m_Id": "c2ed930d7f304bd8a20ce9edd13a7bf8"
            },
            {
                "m_Id": "5093e7607d5b4ee5adef1ed7422ee090"
            }
        ]
    },
    "m_FragmentContext": {
        "m_Position": {
            "x": 0.0,
            "y": 200.0
        },
        "m_Blocks": [
            {
                "m_Id": "b7429400ff7c434e9816894bad1ac4b3"
            },
            {
                "m_Id": "344c0f57d79143d4897b462eb6895b5b"
            },
            {
                "m_Id": "e6c76fd3a3044e4388d124d4d6af68fc"
            }
        ]
    },
    "m_PreviewData": {
        "serializedMesh": {
            "m_SerializedMesh": "{\"mesh\":{\"instanceID\":0}}",
            "m_Guid": ""
        },
        "preventRotation": false
    },
    "m_Path": "Shader Graphs",
    "m_GraphPrecision": 1,
    "m_PreviewMode": 2,
    "m_OutputNode": {
        "m_Id": ""
    },
    "m_SubDatas": [],
    "m_ActiveTargets": [
        {
            "m_Id": "f5aee325225640a999656cc60c9b915c"
        }
    ]
}

{
    "m_SGVersion": 0,
    "m_Type": "UnityEditor.ShaderGraph.AddNode",
    "m_ObjectId": "0271a604e8eb482783749484b665663d",
    "m_Group": {
        "m_Id": ""
    },
    "m_Name": "Add",
    "m_DrawState": {
        "m_Expanded": true,
        "m_Position": {
            "serializedVersion": "2",
            "x": -646.4000244140625,
            "y": 325.5999755859375,
            "width": 208.00006103515626,
            "height": 301.60003662109377
        }
    },
    "m_Slots": [
        {
            "m_Id": "c4446c22a49b4beab23f58752dbcab3b"
        },
        {
            "m_Id": "0eabf4ad851f4613bbf2df6503c70978"
        },
        {
            "m_Id": "7eb980e4cfa348c89bde679b804ef053"
        }
    ],
    "synonyms": [
        "addition",
        "sum",
        "plus"
    ],
    "m_Precision": 0,
    "m_PreviewExpanded": true,
    "m_DismissedVersion": 0,
    "m_PreviewMode": 0,
    "m_CustomColors": {
        "m_SerializableColors": []
    }
}

{
    "m_SGVersion": 0,
    "m_Type": "UnityEditor.ShaderGraph.DynamicVectorMaterialSlot",
    "m_ObjectId": "066f5256469a4c4bb57fddf1a41ca198",
    "m_Id": 1,
    "m_DisplayName": "B",
    "m_SlotType": 0,
    "m_Hidden": false,
    "m_ShaderOutputName": "B",
    "m_StageCapability": 3,
    "m_Value": {
        "x": 0.0,
        "y": 1.0,
        "z": 0.0,
        "w": 0.0
    },
    "m_DefaultValue": {
        "x": 0.0,
        "y": 0.0,
        "z": 0.0,
        "w": 0.0
    }
}

{
    "m_SGVersion": 0,
    "m_Type": "UnityEditor.ShaderGraph.Internal.Texture2DShaderProperty",
    "m_ObjectId": "06c884b5cbe64ab795d435cec3774c3d",
    "m_Guid": {
        "m_GuidSerialized": "bd21ab66-28b1-4328-b769-2f895c27f522"
    },
    "m_Name": "TexturaMulticanal",
    "m_DefaultRefNameVersion": 1,
    "m_RefNameGeneratedByDisplayName": "TexturaMulticanal",
    "m_DefaultReferenceName": "_TexturaMulticanal",
    "m_OverrideReferenceName": "",
    "m_GeneratePropertyBlock": true,
    "m_UseCustomSlotLabel": false,
    "m_CustomSlotLabel": "",
    "m_DismissedVersion": 0,
    "m_Precision": 0,
    "overrideHLSLDeclaration": false,
    "hlslDeclarationOverride": 0,
    "m_Hidden": false,
    "m_Value": {
        "m_SerializedTexture": "{\"texture\":{\"fileID\":2800000,\"guid\":\"a2eb221d611785c4598078b69883bf48\",\"type\":3}}",
        "m_Guid": ""
    },
    "isMainTexture": false,
    "useTilingAndOffset": false,
    "m_Modifiable": true,
    "m_DefaultType": 0
}

{
    "m_SGVersion": 0,
    "m_Type": "UnityEditor.ShaderGraph.BlockNode",
    "m_ObjectId": "086c6c4811174bc3b96a67ceef64c6cc",
    "m_Group": {
        "m_Id": ""
    },
    "m_Name": "VertexDescription.Position",
    "m_DrawState": {
        "m_Expanded": true,
        "m_Position": {
            "serializedVersion": "2",
            "x": 0.0,
            "y": 0.0,
            "width": 0.0,
            "height": 0.0
        }
    },
    "m_Slots": [
        {
            "m_Id": "e1b3355e16ec49aca79dbf1bd933b299"
        }
    ],
    "synonyms": [],
    "m_Precision": 0,
    "m_PreviewExpanded": true,
    "m_DismissedVersion": 0,
    "m_PreviewMode": 0,
    "m_CustomColors": {
        "m_SerializableColors": []
    },
    "m_SerializedDescriptor": "VertexDescription.Position"
}

{
    "m_SGVersion": 0,
    "m_Type": "UnityEditor.ShaderGraph.MultiplyNode",
    "m_ObjectId": "0e584c16cba34fe59e08ba18e57cdd7f",
    "m_Group": {
        "m_Id": ""
    },
    "m_Name": "Multiply",
    "m_DrawState": {
        "m_Expanded": true,
        "m_Position": {
            "serializedVersion": "2",
            "x": -1334.39990234375,
            "y": 643.9999389648438,
            "width": 207.9998779296875,
            "height": 301.60003662109377
        }
    },
    "m_Slots": [
        {
            "m_Id": "d9e87b8022254d9bbf2a6f7dbd3e87f5"
        },
        {
            "m_Id": "60582c861ce34ba4b680d1fce85e86cb"
        },
        {
            "m_Id": "c0cff8be97b2406c9781c1852cf3acc4"
        }
    ],
    "synonyms": [
        "multiplication",
        "times",
        "x"
    ],
    "m_Precision": 0,
    "m_PreviewExpanded": true,
    "m_DismissedVersion": 0,
    "m_PreviewMode": 0,
    "m_CustomColors": {
        "m_SerializableColors": []
    }
}

{
    "m_SGVersion": 0,
    "m_Type": "UnityEditor.ShaderGraph.DynamicVectorMaterialSlot",
    "m_ObjectId": "0eabf4ad851f4613bbf2df6503c70978",
    "m_Id": 1,
    "m_DisplayName": "B",
    "m_SlotType": 0,
    "m_Hidden": false,
    "m_ShaderOutputName": "B",
    "m_StageCapability": 3,
    "m_Value": {
        "x": 0.0,
        "y": 0.0,
        "z": 0.0,
        "w": 0.0
    },
    "m_DefaultValue": {
        "x": 0.0,
        "y": 0.0,
        "z": 0.0,
        "w": 0.0
    }
}

{
    "m_SGVersion": 0,
    "m_Type": "UnityEditor.ShaderGraph.CategoryData",
    "m_ObjectId": "15785edb96764f18b6bec900ef743361",
    "m_Name": "",
    "m_ChildObjectList": [
        {
            "m_Id": "06c884b5cbe64ab795d435cec3774c3d"
        },
        {
            "m_Id": "e7217c8f02414002acaf9a4eb977cb48"
        },
        {
            "m_Id": "933cf430909f40a68ad631091492b4fc"
        },
        {
            "m_Id": "c106b7a8daa54c5d91dd14323b768825"
        }
    ]
}

{
    "m_SGVersion": 0,
    "m_Type": "UnityEditor.ShaderGraph.DynamicValueMaterialSlot",
    "m_ObjectId": "1f0b1fc6fd074160a63caf5b37f4fad1",
    "m_Id": 0,
    "m_DisplayName": "A",
    "m_SlotType": 0,
    "m_Hidden": false,
    "m_ShaderOutputName": "A",
    "m_StageCapability": 3,
    "m_Value": {
        "e00": 0.0,
        "e01": 0.0,
        "e02": 0.0,
        "e03": 0.0,
        "e10": 0.0,
        "e11": 0.0,
        "e12": 0.0,
        "e13": 0.0,
        "e20": 0.0,
        "e21": 0.0,
        "e22": 0.0,
        "e23": 0.0,
        "e30": 0.0,
        "e31": 0.0,
        "e32": 0.0,
        "e33": 0.0
    },
    "m_DefaultValue": {
        "e00": 1.0,
        "e01": 0.0,
        "e02": 0.0,
        "e03": 0.0,
        "e10": 0.0,
        "e11": 1.0,
        "e12": 0.0,
        "e13": 0.0,
        "e20": 0.0,
        "e21": 0.0,
        "e22": 1.0,
        "e23": 0.0,
        "e30": 0.0,
        "e31": 0.0,
        "e32": 0.0,
        "e33": 1.0
    }
}

{
    "m_SGVersion": 0,
    "m_Type": "UnityEditor.ShaderGraph.SamplerStateMaterialSlot",
    "m_ObjectId": "1f94965ed4bb4559b968f5e5e30ea60e",
    "m_Id": 3,
    "m_DisplayName": "Sampler",
    "m_SlotType": 0,
    "m_Hidden": false,
    "m_ShaderOutputName": "Sampler",
    "m_StageCapability": 3,
    "m_BareResource": false
}

{
    "m_SGVersion": 0,
    "m_Type": "UnityEditor.ShaderGraph.TangentMaterialSlot",
    "m_ObjectId": "21472a402d9640eb95448737e20fef80",
    "m_Id": 0,
    "m_DisplayName": "Tangent",
    "m_SlotType": 0,
    "m_Hidden": false,
    "m_ShaderOutputName": "Tangent",
    "m_StageCapability": 1,
    "m_Value": {
        "x": 0.0,
        "y": 0.0,
        "z": 0.0
    },
    "m_DefaultValue": {
        "x": 0.0,
        "y": 0.0,
        "z": 0.0
    },
    "m_Labels": [],
    "m_Space": 0
}

{
    "m_SGVersion": 0,
    "m_Type": "UnityEditor.ShaderGraph.MultiplyNode",
    "m_ObjectId": "296edca634874fd5883ae1723a75519f",
    "m_Group": {
        "m_Id": ""
    },
    "m_Name": "Multiply",
    "m_DrawState": {
        "m_Expanded": true,
        "m_Position": {
            "serializedVersion": "2",
            "x": -1319.199951171875,
            "y": -47.199989318847659,
            "width": 208.0,
            "height": 301.5999755859375
        }
    },
    "m_Slots": [
        {
            "m_Id": "e8432a04cba341daa42e1e860c21f876"
        },
        {
            "m_Id": "53f70e7495844d67aea52abebfab9ced"
        },
        {
            "m_Id": "586604cc227e451f929a276fdefcca56"
        }
    ],
    "synonyms": [
        "multiplication",
        "times",
        "x"
    ],
    "m_Precision": 0,
    "m_PreviewExpanded": true,
    "m_DismissedVersion": 0,
    "m_PreviewMode": 0,
    "m_CustomColors": {
        "m_SerializableColors": []
    }
}

{
    "m_SGVersion": 0,
    "m_Type": "UnityEditor.ShaderGraph.DynamicVectorMaterialSlot",
    "m_ObjectId": "29f8618b091c4831b6bd1b121815748a",
    "m_Id": 0,
    "m_DisplayName": "In",
    "m_SlotType": 0,
    "m_Hidden": false,
    "m_ShaderOutputName": "In",
    "m_StageCapability": 3,
    "m_Value": {
        "x": 0.0,
        "y": 0.0,
        "z": 0.0,
        "w": 0.0
    },
    "m_DefaultValue": {
        "x": 0.0,
        "y": 0.0,
        "z": 0.0,
        "w": 0.0
    }
}

{
    "m_SGVersion": 0,
    "m_Type": "UnityEditor.ShaderGraph.Vector1MaterialSlot",
    "m_ObjectId": "2bd202763ff34c1d8d49da3f19b81b94",
    "m_Id": 0,
    "m_DisplayName": "Alpha",
    "m_SlotType": 0,
    "m_Hidden": false,
    "m_ShaderOutputName": "Alpha",
    "m_StageCapability": 2,
    "m_Value": 1.0,
    "m_DefaultValue": 1.0,
    "m_Labels": []
}

{
    "m_SGVersion": 0,
    "m_Type": "UnityEditor.ShaderGraph.BlockNode",
    "m_ObjectId": "344c0f57d79143d4897b462eb6895b5b",
    "m_Group": {
        "m_Id": ""
    },
    "m_Name": "SurfaceDescription.Alpha",
    "m_DrawState": {
        "m_Expanded": true,
        "m_Position": {
            "serializedVersion": "2",
            "x": 0.0,
            "y": 0.0,
            "width": 0.0,
            "height": 0.0
        }
    },
    "m_Slots": [
        {
            "m_Id": "2bd202763ff34c1d8d49da3f19b81b94"
        }
    ],
    "synonyms": [],
    "m_Precision": 0,
    "m_PreviewExpanded": true,
    "m_DismissedVersion": 0,
    "m_PreviewMode": 0,
    "m_CustomColors": {
        "m_SerializableColors": []
    },
    "m_SerializedDescriptor": "SurfaceDescription.Alpha"
}

{
    "m_SGVersion": 0,
    "m_Type": "UnityEditor.ShaderGraph.Vector4MaterialSlot",
    "m_ObjectId": "3653f78fdcb746829752048403a78146",
    "m_Id": 0,
    "m_DisplayName": "RGBA",
    "m_SlotType": 1,
    "m_Hidden": false,
    "m_ShaderOutputName": "RGBA",
    "m_StageCapability": 2,
    "m_Value": {
        "x": 0.0,
        "y": 0.0,
        "z": 0.0,
        "w": 0.0
    },
    "m_DefaultValue": {
        "x": 0.0,
        "y": 0.0,
        "z": 0.0,
        "w": 0.0
    },
    "m_Labels": []
}

{
    "m_SGVersion": 0,
    "m_Type": "UnityEditor.ShaderGraph.ColorRGBMaterialSlot",
    "m_ObjectId": "3804fdd3b10f458480ce3b43f8ece995",
    "m_Id": 0,
    "m_DisplayName": "Base Color",
    "m_SlotType": 0,
    "m_Hidden": false,
    "m_ShaderOutputName": "BaseColor",
    "m_StageCapability": 2,
    "m_Value": {
        "x": 0.5,
        "y": 0.5,
        "z": 0.5
    },
    "m_DefaultValue": {
        "x": 0.0,
        "y": 0.0,
        "z": 0.0
    },
    "m_Labels": [],
    "m_ColorMode": 0,
    "m_DefaultColor": {
        "r": 0.5,
        "g": 0.5,
        "b": 0.5,
        "a": 1.0
    }
}

{
    "m_SGVersion": 0,
    "m_Type": "UnityEditor.ShaderGraph.DynamicVectorMaterialSlot",
    "m_ObjectId": "3e783e1f2cb649f78e10518c96e223af",
    "m_Id": 2,
    "m_DisplayName": "Out",
    "m_SlotType": 1,
    "m_Hidden": false,
    "m_ShaderOutputName": "Out",
    "m_StageCapability": 3,
    "m_Value": {
        "x": 0.0,
        "y": 0.0,
        "z": 0.0,
        "w": 0.0
    },
    "m_DefaultValue": {
        "x": 0.0,
        "y": 0.0,
        "z": 0.0,
        "w": 0.0
    }
}

{
    "m_SGVersion": 0,
    "m_Type": "UnityEditor.ShaderGraph.DotProductNode",
    "m_ObjectId": "40ba2d51e8b74ed3a5aacb3c37aff61b",
    "m_Group": {
        "m_Id": ""
    },
    "m_Name": "Dot Product",
    "m_DrawState": {
        "m_Expanded": true,
        "m_Position": {
            "serializedVersion": "2",
            "x": -1765.5999755859375,
            "y": 300.800048828125,
            "width": 208.0,
            "height": 301.60003662109377
        }
    },
    "m_Slots": [
        {
            "m_Id": "b9f0d18f200a4c4ca70bd8dcad6402b9"
        },
        {
            "m_Id": "066f5256469a4c4bb57fddf1a41ca198"
        },
        {
            "m_Id": "7181c1b2c5794f2cb35baa8e6db3674a"
        }
    ],
    "synonyms": [
        "scalar product"
    ],
    "m_Precision": 0,
    "m_PreviewExpanded": true,
    "m_DismissedVersion": 0,
    "m_PreviewMode": 0,
    "m_CustomColors": {
        "m_SerializableColors": []
    }
}

{
    "m_SGVersion": 0,
    "m_Type": "UnityEditor.ShaderGraph.Vector1MaterialSlot",
    "m_ObjectId": "4d0e5508719b4163a3392732a781157e",
    "m_Id": 2,
    "m_DisplayName": "Out",
    "m_SlotType": 1,
    "m_Hidden": false,
    "m_ShaderOutputName": "Out",
    "m_StageCapability": 3,
    "m_Value": 0.0,
    "m_DefaultValue": 0.0,
    "m_Labels": []
}

{
    "m_SGVersion": 0,
    "m_Type": "UnityEditor.ShaderGraph.DynamicVectorMaterialSlot",
    "m_ObjectId": "50666b602d334e4f9f7ac09c0be92cc6",
    "m_Id": 1,
    "m_DisplayName": "B",
    "m_SlotType": 0,
    "m_Hidden": false,
    "m_ShaderOutputName": "B",
    "m_StageCapability": 3,
    "m_Value": {
        "x": 1.0,
        "y": 0.0,
        "z": 0.0,
        "w": 0.0
    },
    "m_DefaultValue": {
        "x": 0.0,
        "y": 0.0,
        "z": 0.0,
        "w": 0.0
    }
}

{
    "m_SGVersion": 0,
    "m_Type": "UnityEditor.ShaderGraph.BlockNode",
    "m_ObjectId": "5093e7607d5b4ee5adef1ed7422ee090",
    "m_Group": {
        "m_Id": ""
    },
    "m_Name": "VertexDescription.Tangent",
    "m_DrawState": {
        "m_Expanded": true,
        "m_Position": {
            "serializedVersion": "2",
            "x": 0.0,
            "y": 0.0,
            "width": 0.0,
            "height": 0.0
        }
    },
    "m_Slots": [
        {
            "m_Id": "21472a402d9640eb95448737e20fef80"
        }
    ],
    "synonyms": [],
    "m_Precision": 0,
    "m_PreviewExpanded": true,
    "m_DismissedVersion": 0,
    "m_PreviewMode": 0,
    "m_CustomColors": {
        "m_SerializableColors": []
    },
    "m_SerializedDescriptor": "VertexDescription.Tangent"
}

{
    "m_SGVersion": 0,
    "m_Type": "UnityEditor.ShaderGraph.Vector1MaterialSlot",
    "m_ObjectId": "5315869824a54eec88a9649e1c473cc9",
    "m_Id": 4,
    "m_DisplayName": "R",
    "m_SlotType": 1,
    "m_Hidden": false,
    "m_ShaderOutputName": "R",
    "m_StageCapability": 2,
    "m_Value": 0.0,
    "m_DefaultValue": 0.0,
    "m_Labels": []
}

{
    "m_SGVersion": 0,
    "m_Type": "UnityEditor.ShaderGraph.DynamicValueMaterialSlot",
    "m_ObjectId": "53f70e7495844d67aea52abebfab9ced",
    "m_Id": 1,
    "m_DisplayName": "B",
    "m_SlotType": 0,
    "m_Hidden": false,
    "m_ShaderOutputName": "B",
    "m_StageCapability": 3,
    "m_Value": {
        "e00": 2.0,
        "e01": 2.0,
        "e02": 2.0,
        "e03": 2.0,
        "e10": 2.0,
        "e11": 2.0,
        "e12": 2.0,
        "e13": 2.0,
        "e20": 2.0,
        "e21": 2.0,
        "e22": 2.0,
        "e23": 2.0,
        "e30": 2.0,
        "e31": 2.0,
        "e32": 2.0,
        "e33": 2.0
    },
    "m_DefaultValue": {
        "e00": 1.0,
        "e01": 0.0,
        "e02": 0.0,
        "e03": 0.0,
        "e10": 0.0,
        "e11": 1.0,
        "e12": 0.0,
        "e13": 0.0,
        "e20": 0.0,
        "e21": 0.0,
        "e22": 1.0,
        "e23": 0.0,
        "e30": 0.0,
        "e31": 0.0,
        "e32": 0.0,
        "e33": 1.0
    }
}

{
    "m_SGVersion": 0,
    "m_Type": "UnityEditor.ShaderGraph.PropertyNode",
    "m_ObjectId": "56c7253d0ed44893827e6f8f7aaadb40",
    "m_Group": {
        "m_Id": ""
    },
    "m_Name": "Property",
    "m_DrawState": {
        "m_Expanded": true,
        "m_Position": {
            "serializedVersion": "2",
            "x": -1502.39990234375,
            "y": 30.400005340576173,
            "width": 168.7999267578125,
            "height": 33.60002517700195
        }
    },
    "m_Slots": [
        {
            "m_Id": "d1b084ef41a34e3b87c3fef81e9db284"
        }
    ],
    "synonyms": [],
    "m_Precision": 0,
    "m_PreviewExpanded": true,
    "m_DismissedVersion": 0,
    "m_PreviewMode": 0,
    "m_CustomColors": {
        "m_SerializableColors": []
    },
    "m_Property": {
        "m_Id": "e7217c8f02414002acaf9a4eb977cb48"
    }
}

{
    "m_SGVersion": 0,
    "m_Type": "UnityEditor.ShaderGraph.DynamicValueMaterialSlot",
    "m_ObjectId": "586604cc227e451f929a276fdefcca56",
    "m_Id": 2,
    "m_DisplayName": "Out",
    "m_SlotType": 1,
    "m_Hidden": false,
    "m_ShaderOutputName": "Out",
    "m_StageCapability": 3,
    "m_Value": {
        "e00": 0.0,
        "e01": 0.0,
        "e02": 0.0,
        "e03": 0.0,
        "e10": 0.0,
        "e11": 0.0,
        "e12": 0.0,
        "e13": 0.0,
        "e20": 0.0,
        "e21": 0.0,
        "e22": 0.0,
        "e23": 0.0,
        "e30": 0.0,
        "e31": 0.0,
        "e32": 0.0,
        "e33": 0.0
    },
    "m_DefaultValue": {
        "e00": 1.0,
        "e01": 0.0,
        "e02": 0.0,
        "e03": 0.0,
        "e10": 0.0,
        "e11": 1.0,
        "e12": 0.0,
        "e13": 0.0,
        "e20": 0.0,
        "e21": 0.0,
        "e22": 1.0,
        "e23": 0.0,
        "e30": 0.0,
        "e31": 0.0,
        "e32": 0.0,
        "e33": 1.0
    }
}

{
    "m_SGVersion": 0,
    "m_Type": "UnityEditor.ShaderGraph.DynamicVectorMaterialSlot",
    "m_ObjectId": "591231a59e7d4ff2b25597d0ce8492ae",
    "m_Id": 1,
    "m_DisplayName": "B",
    "m_SlotType": 0,
    "m_Hidden": false,
    "m_ShaderOutputName": "B",
    "m_StageCapability": 3,
    "m_Value": {
        "x": 0.0,
        "y": 0.0,
        "z": 0.0,
        "w": 0.0
    },
    "m_DefaultValue": {
        "x": 0.0,
        "y": 0.0,
        "z": 0.0,
        "w": 0.0
    }
}

{
    "m_SGVersion": 0,
    "m_Type": "UnityEditor.ShaderGraph.DynamicVectorMaterialSlot",
    "m_ObjectId": "598da10150904685af60965812efe4ca",
    "m_Id": 0,
    "m_DisplayName": "A",
    "m_SlotType": 0,
    "m_Hidden": false,
    "m_ShaderOutputName": "A",
    "m_StageCapability": 3,
    "m_Value": {
        "x": 0.0,
        "y": 0.0,
        "z": 0.0,
        "w": 0.0
    },
    "m_DefaultValue": {
        "x": 0.0,
        "y": 0.0,
        "z": 0.0,
        "w": 0.0
    }
}

{
    "m_SGVersion": 0,
    "m_Type": "UnityEditor.ShaderGraph.DynamicVectorMaterialSlot",
    "m_ObjectId": "5af45d424ced45beabd46d6feac7e721",
    "m_Id": 1,
    "m_DisplayName": "B",
    "m_SlotType": 0,
    "m_Hidden": false,
    "m_ShaderOutputName": "B",
    "m_StageCapability": 3,
    "m_Value": {
        "x": 0.0,
        "y": 0.0,
        "z": 1.0,
        "w": 0.0
    },
    "m_DefaultValue": {
        "x": 0.0,
        "y": 0.0,
        "z": 0.0,
        "w": 0.0
    }
}

{
    "m_SGVersion": 0,
    "m_Type": "UnityEditor.ShaderGraph.DotProductNode",
    "m_ObjectId": "5c6f823f3977455dbe36e4ef26109f5d",
    "m_Group": {
        "m_Id": ""
    },
    "m_Name": "Dot Product",
    "m_DrawState": {
        "m_Expanded": true,
        "m_Position": {
            "serializedVersion": "2",
            "x": -1765.5999755859375,
            "y": 643.9999389648438,
            "width": 208.0,
            "height": 301.60003662109377
        }
    },
    "m_Slots": [
        {
            "m_Id": "598da10150904685af60965812efe4ca"
        },
        {
            "m_Id": "5af45d424ced45beabd46d6feac7e721"
        },
        {
            "m_Id": "4d0e5508719b4163a3392732a781157e"
        }
    ],
    "synonyms": [
        "scalar product"
    ],
    "m_Precision": 0,
    "m_PreviewExpanded": true,
    "m_DismissedVersion": 0,
    "m_PreviewMode": 0,
    "m_CustomColors": {
        "m_SerializableColors": []
    }
}

{
    "m_SGVersion": 0,
    "m_Type": "UnityEditor.ShaderGraph.DynamicValueMaterialSlot",
    "m_ObjectId": "5f67052cd3a945baa19718f7ed0f5a86",
    "m_Id": 1,
    "m_DisplayName": "B",
    "m_SlotType": 0,
    "m_Hidden": false,
    "m_ShaderOutputName": "B",
    "m_StageCapability": 3,
    "m_Value": {
        "e00": 2.0,
        "e01": 2.0,
        "e02": 2.0,
        "e03": 2.0,
        "e10": 2.0,
        "e11": 2.0,
        "e12": 2.0,
        "e13": 2.0,
        "e20": 2.0,
        "e21": 2.0,
        "e22": 2.0,
        "e23": 2.0,
        "e30": 2.0,
        "e31": 2.0,
        "e32": 2.0,
        "e33": 2.0
    },
    "m_DefaultValue": {
        "e00": 1.0,
        "e01": 0.0,
        "e02": 0.0,
        "e03": 0.0,
        "e10": 0.0,
        "e11": 1.0,
        "e12": 0.0,
        "e13": 0.0,
        "e20": 0.0,
        "e21": 0.0,
        "e22": 1.0,
        "e23": 0.0,
        "e30": 0.0,
        "e31": 0.0,
        "e32": 0.0,
        "e33": 1.0
    }
}

{
    "m_SGVersion": 0,
    "m_Type": "UnityEditor.ShaderGraph.DynamicValueMaterialSlot",
    "m_ObjectId": "60582c861ce34ba4b680d1fce85e86cb",
    "m_Id": 1,
    "m_DisplayName": "B",
    "m_SlotType": 0,
    "m_Hidden": false,
    "m_ShaderOutputName": "B",
    "m_StageCapability": 3,
    "m_Value": {
        "e00": 2.0,
        "e01": 2.0,
        "e02": 2.0,
        "e03": 2.0,
        "e10": 2.0,
        "e11": 2.0,
        "e12": 2.0,
        "e13": 2.0,
        "e20": 2.0,
        "e21": 2.0,
        "e22": 2.0,
        "e23": 2.0,
        "e30": 2.0,
        "e31": 2.0,
        "e32": 2.0,
        "e33": 2.0
    },
    "m_DefaultValue": {
        "e00": 1.0,
        "e01": 0.0,
        "e02": 0.0,
        "e03": 0.0,
        "e10": 0.0,
        "e11": 1.0,
        "e12": 0.0,
        "e13": 0.0,
        "e20": 0.0,
        "e21": 0.0,
        "e22": 1.0,
        "e23": 0.0,
        "e30": 0.0,
        "e31": 0.0,
        "e32": 0.0,
        "e33": 1.0
    }
}

{
    "m_SGVersion": 0,
    "m_Type": "UnityEditor.ShaderGraph.NormalMaterialSlot",
    "m_ObjectId": "6491b4eceafb45158e0394e29467f0fc",
    "m_Id": 0,
    "m_DisplayName": "Normal",
    "m_SlotType": 0,
    "m_Hidden": false,
    "m_ShaderOutputName": "Normal",
    "m_StageCapability": 1,
    "m_Value": {
        "x": 0.0,
        "y": 0.0,
        "z": 0.0
    },
    "m_DefaultValue": {
        "x": 0.0,
        "y": 0.0,
        "z": 0.0
    },
    "m_Labels": [],
    "m_Space": 0
}

{
    "m_SGVersion": 0,
    "m_Type": "UnityEditor.ShaderGraph.Texture2DMaterialSlot",
    "m_ObjectId": "684f7eb3c4164fb89f15b3d88715526b",
    "m_Id": 0,
    "m_DisplayName": "TexturaMulticanal",
    "m_SlotType": 1,
    "m_Hidden": false,
    "m_ShaderOutputName": "Out",
    "m_StageCapability": 3,
    "m_BareResource": false
}

{
    "m_SGVersion": 0,
    "m_Type": "UnityEditor.ShaderGraph.PropertyNode",
    "m_ObjectId": "7051d17ccd124d849d396a32c6f6a86b",
    "m_Group": {
        "m_Id": ""
    },
    "m_Name": "Property",
    "m_DrawState": {
        "m_Expanded": true,
        "m_Position": {
            "serializedVersion": "2",
            "x": -2659.199951171875,
            "y": -255.99996948242188,
            "width": 176.7998046875,
            "height": 33.600006103515628
        }
    },
    "m_Slots": [
        {
            "m_Id": "684f7eb3c4164fb89f15b3d88715526b"
        }
    ],
    "synonyms": [],
    "m_Precision": 0,
    "m_PreviewExpanded": true,
    "m_DismissedVersion": 0,
    "m_PreviewMode": 0,
    "m_CustomColors": {
        "m_SerializableColors": []
    },
    "m_Property": {
        "m_Id": "06c884b5cbe64ab795d435cec3774c3d"
    }
}

{
    "m_SGVersion": 0,
    "m_Type": "UnityEditor.ShaderGraph.Vector1MaterialSlot",
    "m_ObjectId": "7181c1b2c5794f2cb35baa8e6db3674a",
    "m_Id": 2,
    "m_DisplayName": "Out",
    "m_SlotType": 1,
    "m_Hidden": false,
    "m_ShaderOutputName": "Out",
    "m_StageCapability": 3,
    "m_Value": 0.0,
    "m_DefaultValue": 0.0,
    "m_Labels": []
}

{
    "m_SGVersion": 0,
    "m_Type": "UnityEditor.ShaderGraph.AddNode",
    "m_ObjectId": "7911165b8adf410eb31cc2a4d6db5360",
    "m_Group": {
        "m_Id": ""
    },
    "m_Name": "Add",
    "m_DrawState": {
        "m_Expanded": true,
        "m_Position": {
            "serializedVersion": "2",
            "x": -942.3999633789063,
            "y": 105.60000610351563,
            "width": 208.0,
            "height": 301.5999450683594
        }
    },
    "m_Slots": [
        {
            "m_Id": "c362ce4e07be405193a9f599d5091f52"
        },
        {
            "m_Id": "591231a59e7d4ff2b25597d0ce8492ae"
        },
        {
            "m_Id": "3e783e1f2cb649f78e10518c96e223af"
        }
    ],
    "synonyms": [
        "addition",
        "sum",
        "plus"
    ],
    "m_Precision": 0,
    "m_PreviewExpanded": true,
    "m_DismissedVersion": 0,
    "m_PreviewMode": 0,
    "m_CustomColors": {
        "m_SerializableColors": []
    }
}

{
    "m_SGVersion": 0,
    "m_Type": "UnityEditor.ShaderGraph.DynamicVectorMaterialSlot",
    "m_ObjectId": "7eb980e4cfa348c89bde679b804ef053",
    "m_Id": 2,
    "m_DisplayName": "Out",
    "m_SlotType": 1,
    "m_Hidden": false,
    "m_ShaderOutputName": "Out",
    "m_StageCapability": 3,
    "m_Value": {
        "x": 0.0,
        "y": 0.0,
        "z": 0.0,
        "w": 0.0
    },
    "m_DefaultValue": {
        "x": 0.0,
        "y": 0.0,
        "z": 0.0,
        "w": 0.0
    }
}

{
    "m_SGVersion": 0,
    "m_Type": "UnityEditor.ShaderGraph.Vector4MaterialSlot",
    "m_ObjectId": "89e94e9a8af8470f847e300fa0dcaadb",
    "m_Id": 0,
    "m_DisplayName": "BlueChannelColor",
    "m_SlotType": 1,
    "m_Hidden": false,
    "m_ShaderOutputName": "Out",
    "m_StageCapability": 3,
    "m_Value": {
        "x": 0.0,
        "y": 0.0,
        "z": 0.0,
        "w": 0.0
    },
    "m_DefaultValue": {
        "x": 0.0,
        "y": 0.0,
        "z": 0.0,
        "w": 0.0
    },
    "m_Labels": []
}

{
    "m_SGVersion": 0,
    "m_Type": "UnityEditor.ShaderGraph.PropertyNode",
    "m_ObjectId": "8a81a2a0601b496e96ca793e05be2cd4",
    "m_Group": {
        "m_Id": ""
    },
    "m_Name": "Property",
    "m_DrawState": {
        "m_Expanded": true,
        "m_Position": {
            "serializedVersion": "2",
            "x": -1536.7999267578125,
            "y": 367.9999694824219,
            "width": 180.0,
            "height": 33.60009765625
        }
    },
    "m_Slots": [
        {
            "m_Id": "b020624296004c0aade423d5f6c86dd5"
        }
    ],
    "synonyms": [],
    "m_Precision": 0,
    "m_PreviewExpanded": true,
    "m_DismissedVersion": 0,
    "m_PreviewMode": 0,
    "m_CustomColors": {
        "m_SerializableColors": []
    },
    "m_Property": {
        "m_Id": "933cf430909f40a68ad631091492b4fc"
    }
}

{
    "m_SGVersion": 3,
    "m_Type": "UnityEditor.ShaderGraph.Internal.ColorShaderProperty",
    "m_ObjectId": "933cf430909f40a68ad631091492b4fc",
    "m_Guid": {
        "m_GuidSerialized": "5e6a7c34-c297-41ac-9d4e-53698eb38bce"
    },
    "m_Name": "GreenChannelColor",
    "m_DefaultRefNameVersion": 1,
    "m_RefNameGeneratedByDisplayName": "GreenChannelColor",
    "m_DefaultReferenceName": "_GreenChannelColor",
    "m_OverrideReferenceName": "",
    "m_GeneratePropertyBlock": true,
    "m_UseCustomSlotLabel": false,
    "m_CustomSlotLabel": "",
    "m_DismissedVersion": 0,
    "m_Precision": 0,
    "overrideHLSLDeclaration": false,
    "hlslDeclarationOverride": 0,
    "m_Hidden": false,
    "m_Value": {
        "r": 0.031167609617114068,
        "g": 0.9716981053352356,
        "b": 0.14716604351997376,
        "a": 0.0
    },
    "isMainColor": false,
    "m_ColorMode": 0
}

{
    "m_SGVersion": 0,
    "m_Type": "UnityEditor.ShaderGraph.Vector1MaterialSlot",
    "m_ObjectId": "971497ae73ba4820ac3d44b647a2ba10",
    "m_Id": 6,
    "m_DisplayName": "B",
    "m_SlotType": 1,
    "m_Hidden": false,
    "m_ShaderOutputName": "B",
    "m_StageCapability": 2,
    "m_Value": 0.0,
    "m_DefaultValue": 0.0,
    "m_Labels": []
}

{
    "m_SGVersion": 0,
    "m_Type": "UnityEditor.ShaderGraph.MultiplyNode",
    "m_ObjectId": "a022411710ed44c7b2e757287839f65c",
    "m_Group": {
        "m_Id": ""
    },
    "m_Name": "Multiply",
    "m_DrawState": {
        "m_Expanded": true,
        "m_Position": {
            "serializedVersion": "2",
            "x": -1319.199951171875,
            "y": 300.800048828125,
            "width": 208.0,
            "height": 301.60003662109377
        }
    },
    "m_Slots": [
        {
            "m_Id": "1f0b1fc6fd074160a63caf5b37f4fad1"
        },
        {
            "m_Id": "5f67052cd3a945baa19718f7ed0f5a86"
        },
        {
            "m_Id": "a3598dbf9d0745e4a5ca94c5a1e252da"
        }
    ],
    "synonyms": [
        "multiplication",
        "times",
        "x"
    ],
    "m_Precision": 0,
    "m_PreviewExpanded": true,
    "m_DismissedVersion": 0,
    "m_PreviewMode": 0,
    "m_CustomColors": {
        "m_SerializableColors": []
    }
}

{
    "m_SGVersion": 0,
    "m_Type": "UnityEditor.ShaderGraph.DynamicValueMaterialSlot",
    "m_ObjectId": "a3598dbf9d0745e4a5ca94c5a1e252da",
    "m_Id": 2,
    "m_DisplayName": "Out",
    "m_SlotType": 1,
    "m_Hidden": false,
    "m_ShaderOutputName": "Out",
    "m_StageCapability": 3,
    "m_Value": {
        "e00": 0.0,
        "e01": 0.0,
        "e02": 0.0,
        "e03": 0.0,
        "e10": 0.0,
        "e11": 0.0,
        "e12": 0.0,
        "e13": 0.0,
        "e20": 0.0,
        "e21": 0.0,
        "e22": 0.0,
        "e23": 0.0,
        "e30": 0.0,
        "e31": 0.0,
        "e32": 0.0,
        "e33": 0.0
    },
    "m_DefaultValue": {
        "e00": 1.0,
        "e01": 0.0,
        "e02": 0.0,
        "e03": 0.0,
        "e10": 0.0,
        "e11": 1.0,
        "e12": 0.0,
        "e13": 0.0,
        "e20": 0.0,
        "e21": 0.0,
        "e22": 1.0,
        "e23": 0.0,
        "e30": 0.0,
        "e31": 0.0,
        "e32": 0.0,
        "e33": 1.0
    }
}

{
    "m_SGVersion": 0,
    "m_Type": "UnityEditor.ShaderGraph.SampleTexture2DNode",
    "m_ObjectId": "a51ffdde91fe42f08c994c8c178fbaf9",
    "m_Group": {
        "m_Id": ""
    },
    "m_Name": "Sample Texture 2D",
    "m_DrawState": {
        "m_Expanded": true,
        "m_Position": {
            "serializedVersion": "2",
            "x": -2407.199951171875,
            "y": -293.5999755859375,
            "width": 208.0,
            "height": 432.0000305175781
        }
    },
    "m_Slots": [
        {
            "m_Id": "3653f78fdcb746829752048403a78146"
        },
        {
            "m_Id": "5315869824a54eec88a9649e1c473cc9"
        },
        {
            "m_Id": "f3f9475890cd4f22a5559b7fd1e406cf"
        },
        {
            "m_Id": "971497ae73ba4820ac3d44b647a2ba10"
        },
        {
            "m_Id": "bbbe6b81cd9e493a85bc7908628507d6"
        },
        {
            "m_Id": "b112e88050bc44088447c493771a12a6"
        },
        {
            "m_Id": "fdb68569a7be49369d6df764cc385830"
        },
        {
            "m_Id": "1f94965ed4bb4559b968f5e5e30ea60e"
        }
    ],
    "synonyms": [
        "tex2d"
    ],
    "m_Precision": 0,
    "m_PreviewExpanded": true,
    "m_DismissedVersion": 0,
    "m_PreviewMode": 0,
    "m_CustomColors": {
        "m_SerializableColors": []
    },
    "m_TextureType": 0,
    "m_NormalMapSpace": 0,
    "m_EnableGlobalMipBias": true,
    "m_MipSamplingMode": 0
}

{
    "m_SGVersion": 0,
    "m_Type": "UnityEditor.ShaderGraph.PropertyNode",
    "m_ObjectId": "ae5131d809d84654b0f97f006ff15a6a",
    "m_Group": {
        "m_Id": ""
    },
    "m_Name": "Property",
    "m_DrawState": {
        "m_Expanded": true,
        "m_Position": {
            "serializedVersion": "2",
            "x": -1528.7999267578125,
            "y": 711.2000122070313,
            "width": 171.199951171875,
            "height": 33.5999755859375
        }
    },
    "m_Slots": [
        {
            "m_Id": "89e94e9a8af8470f847e300fa0dcaadb"
        }
    ],
    "synonyms": [],
    "m_Precision": 0,
    "m_PreviewExpanded": true,
    "m_DismissedVersion": 0,
    "m_PreviewMode": 0,
    "m_CustomColors": {
        "m_SerializableColors": []
    },
    "m_Property": {
        "m_Id": "c106b7a8daa54c5d91dd14323b768825"
    }
}

{
    "m_SGVersion": 0,
    "m_Type": "UnityEditor.ShaderGraph.Vector4MaterialSlot",
    "m_ObjectId": "b020624296004c0aade423d5f6c86dd5",
    "m_Id": 0,
    "m_DisplayName": "GreenChannelColor",
    "m_SlotType": 1,
    "m_Hidden": false,
    "m_ShaderOutputName": "Out",
    "m_StageCapability": 3,
    "m_Value": {
        "x": 0.0,
        "y": 0.0,
        "z": 0.0,
        "w": 0.0
    },
    "m_DefaultValue": {
        "x": 0.0,
        "y": 0.0,
        "z": 0.0,
        "w": 0.0
    },
    "m_Labels": []
}

{
    "m_SGVersion": 0,
    "m_Type": "UnityEditor.ShaderGraph.Texture2DInputMaterialSlot",
    "m_ObjectId": "b112e88050bc44088447c493771a12a6",
    "m_Id": 1,
    "m_DisplayName": "Texture",
    "m_SlotType": 0,
    "m_Hidden": false,
    "m_ShaderOutputName": "Texture",
    "m_StageCapability": 3,
    "m_BareResource": false,
    "m_Texture": {
        "m_SerializedTexture": "{\"texture\":{\"instanceID\":0}}",
        "m_Guid": ""
    },
    "m_DefaultType": 0
}

{
    "m_SGVersion": 0,
    "m_Type": "UnityEditor.ShaderGraph.BlockNode",
    "m_ObjectId": "b7429400ff7c434e9816894bad1ac4b3",
    "m_Group": {
        "m_Id": ""
    },
    "m_Name": "SurfaceDescription.BaseColor",
    "m_DrawState": {
        "m_Expanded": true,
        "m_Position": {
            "serializedVersion": "2",
            "x": 0.0,
            "y": 0.0,
            "width": 0.0,
            "height": 0.0
        }
    },
    "m_Slots": [
        {
            "m_Id": "3804fdd3b10f458480ce3b43f8ece995"
        }
    ],
    "synonyms": [],
    "m_Precision": 0,
    "m_PreviewExpanded": true,
    "m_DismissedVersion": 0,
    "m_PreviewMode": 0,
    "m_CustomColors": {
        "m_SerializableColors": []
    },
    "m_SerializedDescriptor": "SurfaceDescription.BaseColor"
}

{
    "m_SGVersion": 0,
    "m_Type": "UnityEditor.ShaderGraph.DynamicVectorMaterialSlot",
    "m_ObjectId": "b9f0d18f200a4c4ca70bd8dcad6402b9",
    "m_Id": 0,
    "m_DisplayName": "A",
    "m_SlotType": 0,
    "m_Hidden": false,
    "m_ShaderOutputName": "A",
    "m_StageCapability": 3,
    "m_Value": {
        "x": 0.0,
        "y": 0.0,
        "z": 0.0,
        "w": 0.0
    },
    "m_DefaultValue": {
        "x": 0.0,
        "y": 0.0,
        "z": 0.0,
        "w": 0.0
    }
}

{
    "m_SGVersion": 0,
    "m_Type": "UnityEditor.ShaderGraph.Vector1MaterialSlot",
    "m_ObjectId": "bbbe6b81cd9e493a85bc7908628507d6",
    "m_Id": 7,
    "m_DisplayName": "A",
    "m_SlotType": 1,
    "m_Hidden": false,
    "m_ShaderOutputName": "A",
    "m_StageCapability": 2,
    "m_Value": 0.0,
    "m_DefaultValue": 0.0,
    "m_Labels": []
}

{
    "m_SGVersion": 0,
    "m_Type": "UnityEditor.ShaderGraph.DynamicValueMaterialSlot",
    "m_ObjectId": "c0cff8be97b2406c9781c1852cf3acc4",
    "m_Id": 2,
    "m_DisplayName": "Out",
    "m_SlotType": 1,
    "m_Hidden": false,
    "m_ShaderOutputName": "Out",
    "m_StageCapability": 3,
    "m_Value": {
        "e00": 0.0,
        "e01": 0.0,
        "e02": 0.0,
        "e03": 0.0,
        "e10": 0.0,
        "e11": 0.0,
        "e12": 0.0,
        "e13": 0.0,
        "e20": 0.0,
        "e21": 0.0,
        "e22": 0.0,
        "e23": 0.0,
        "e30": 0.0,
        "e31": 0.0,
        "e32": 0.0,
        "e33": 0.0
    },
    "m_DefaultValue": {
        "e00": 1.0,
        "e01": 0.0,
        "e02": 0.0,
        "e03": 0.0,
        "e10": 0.0,
        "e11": 1.0,
        "e12": 0.0,
        "e13": 0.0,
        "e20": 0.0,
        "e21": 0.0,
        "e22": 1.0,
        "e23": 0.0,
        "e30": 0.0,
        "e31": 0.0,
        "e32": 0.0,
        "e33": 1.0
    }
}

{
    "m_SGVersion": 3,
    "m_Type": "UnityEditor.ShaderGraph.Internal.ColorShaderProperty",
    "m_ObjectId": "c106b7a8daa54c5d91dd14323b768825",
    "m_Guid": {
        "m_GuidSerialized": "e9df2a1d-1466-4c12-848c-9a77c5753384"
    },
    "m_Name": "BlueChannelColor",
    "m_DefaultRefNameVersion": 1,
    "m_RefNameGeneratedByDisplayName": "BlueChannelColor",
    "m_DefaultReferenceName": "_BlueChannelColor",
    "m_OverrideReferenceName": "",
    "m_GeneratePropertyBlock": true,
    "m_UseCustomSlotLabel": false,
    "m_CustomSlotLabel": "",
    "m_DismissedVersion": 0,
    "m_Precision": 0,
    "overrideHLSLDeclaration": false,
    "hlslDeclarationOverride": 0,
    "m_Hidden": false,
    "m_Value": {
        "r": 0.0,
        "g": 0.09557127952575684,
        "b": 1.0,
        "a": 0.0
    },
    "isMainColor": false,
    "m_ColorMode": 0
}

{
    "m_SGVersion": 0,
    "m_Type": "UnityEditor.ShaderGraph.BlockNode",
    "m_ObjectId": "c2ed930d7f304bd8a20ce9edd13a7bf8",
    "m_Group": {
        "m_Id": ""
    },
    "m_Name": "VertexDescription.Normal",
    "m_DrawState": {
        "m_Expanded": true,
        "m_Position": {
            "serializedVersion": "2",
            "x": 0.0,
            "y": 0.0,
            "width": 0.0,
            "height": 0.0
        }
    },
    "m_Slots": [
        {
            "m_Id": "6491b4eceafb45158e0394e29467f0fc"
        }
    ],
    "synonyms": [],
    "m_Precision": 0,
    "m_PreviewExpanded": true,
    "m_DismissedVersion": 0,
    "m_PreviewMode": 0,
    "m_CustomColors": {
        "m_SerializableColors": []
    },
    "m_SerializedDescriptor": "VertexDescription.Normal"
}

{
    "m_SGVersion": 0,
    "m_Type": "UnityEditor.ShaderGraph.DynamicVectorMaterialSlot",
    "m_ObjectId": "c362ce4e07be405193a9f599d5091f52",
    "m_Id": 0,
    "m_DisplayName": "A",
    "m_SlotType": 0,
    "m_Hidden": false,
    "m_ShaderOutputName": "A",
    "m_StageCapability": 3,
    "m_Value": {
        "x": 0.0,
        "y": 0.0,
        "z": 0.0,
        "w": 0.0
    },
    "m_DefaultValue": {
        "x": 0.0,
        "y": 0.0,
        "z": 0.0,
        "w": 0.0
    }
}

{
    "m_SGVersion": 0,
    "m_Type": "UnityEditor.ShaderGraph.DynamicVectorMaterialSlot",
    "m_ObjectId": "c4446c22a49b4beab23f58752dbcab3b",
    "m_Id": 0,
    "m_DisplayName": "A",
    "m_SlotType": 0,
    "m_Hidden": false,
    "m_ShaderOutputName": "A",
    "m_StageCapability": 3,
    "m_Value": {
        "x": 0.0,
        "y": 0.0,
        "z": 0.0,
        "w": 0.0
    },
    "m_DefaultValue": {
        "x": 0.0,
        "y": 0.0,
        "z": 0.0,
        "w": 0.0
    }
}

{
    "m_SGVersion": 2,
    "m_Type": "UnityEditor.Rendering.Universal.ShaderGraph.UniversalUnlitSubTarget",
    "m_ObjectId": "c620353da29847cda39aa50c6803f6b6"
}

{
    "m_SGVersion": 0,
    "m_Type": "UnityEditor.ShaderGraph.Vector1MaterialSlot",
    "m_ObjectId": "d06b68452d304f4f800d60379ad651a3",
    "m_Id": 2,
    "m_DisplayName": "Out",
    "m_SlotType": 1,
    "m_Hidden": false,
    "m_ShaderOutputName": "Out",
    "m_StageCapability": 3,
    "m_Value": 0.0,
    "m_DefaultValue": 0.0,
    "m_Labels": []
}

{
    "m_SGVersion": 0,
    "m_Type": "UnityEditor.ShaderGraph.Vector4MaterialSlot",
    "m_ObjectId": "d1b084ef41a34e3b87c3fef81e9db284",
    "m_Id": 0,
    "m_DisplayName": "RedChannelColor",
    "m_SlotType": 1,
    "m_Hidden": false,
    "m_ShaderOutputName": "Out",
    "m_StageCapability": 3,
    "m_Value": {
        "x": 0.0,
        "y": 0.0,
        "z": 0.0,
        "w": 0.0
    },
    "m_DefaultValue": {
        "x": 0.0,
        "y": 0.0,
        "z": 0.0,
        "w": 0.0
    },
    "m_Labels": []
}

{
    "m_SGVersion": 0,
    "m_Type": "UnityEditor.ShaderGraph.DynamicValueMaterialSlot",
    "m_ObjectId": "d9e87b8022254d9bbf2a6f7dbd3e87f5",
    "m_Id": 0,
    "m_DisplayName": "A",
    "m_SlotType": 0,
    "m_Hidden": false,
    "m_ShaderOutputName": "A",
    "m_StageCapability": 3,
    "m_Value": {
        "e00": 0.0,
        "e01": 0.0,
        "e02": 0.0,
        "e03": 0.0,
        "e10": 0.0,
        "e11": 0.0,
        "e12": 0.0,
        "e13": 0.0,
        "e20": 0.0,
        "e21": 0.0,
        "e22": 0.0,
        "e23": 0.0,
        "e30": 0.0,
        "e31": 0.0,
        "e32": 0.0,
        "e33": 0.0
    },
    "m_DefaultValue": {
        "e00": 1.0,
        "e01": 0.0,
        "e02": 0.0,
        "e03": 0.0,
        "e10": 0.0,
        "e11": 1.0,
        "e12": 0.0,
        "e13": 0.0,
        "e20": 0.0,
        "e21": 0.0,
        "e22": 1.0,
        "e23": 0.0,
        "e30": 0.0,
        "e31": 0.0,
        "e32": 0.0,
        "e33": 1.0
    }
}

{
    "m_SGVersion": 0,
    "m_Type": "UnityEditor.ShaderGraph.Vector3MaterialSlot",
    "m_ObjectId": "dff4f4b475694322aa422bc6321757d4",
    "m_Id": 1,
    "m_DisplayName": "Out",
    "m_SlotType": 1,
    "m_Hidden": false,
    "m_ShaderOutputName": "Out",
    "m_StageCapability": 3,
    "m_Value": {
        "x": 0.0,
        "y": 0.0,
        "z": 0.0
    },
    "m_DefaultValue": {
        "x": 0.0,
        "y": 0.0,
        "z": 0.0
    },
    "m_Labels": []
}

{
    "m_SGVersion": 0,
    "m_Type": "UnityEditor.ShaderGraph.PositionMaterialSlot",
    "m_ObjectId": "e1b3355e16ec49aca79dbf1bd933b299",
    "m_Id": 0,
    "m_DisplayName": "Position",
    "m_SlotType": 0,
    "m_Hidden": false,
    "m_ShaderOutputName": "Position",
    "m_StageCapability": 1,
    "m_Value": {
        "x": 0.0,
        "y": 0.0,
        "z": 0.0
    },
    "m_DefaultValue": {
        "x": 0.0,
        "y": 0.0,
        "z": 0.0
    },
    "m_Labels": [],
    "m_Space": 0
}

{
    "m_SGVersion": 0,
    "m_Type": "UnityEditor.ShaderGraph.BlockNode",
    "m_ObjectId": "e6c76fd3a3044e4388d124d4d6af68fc",
    "m_Group": {
        "m_Id": ""
    },
    "m_Name": "SurfaceDescription.AlphaClipThreshold",
    "m_DrawState": {
        "m_Expanded": true,
        "m_Position": {
            "serializedVersion": "2",
            "x": 0.0,
            "y": 0.0,
            "width": 0.0,
            "height": 0.0
        }
    },
    "m_Slots": [
        {
            "m_Id": "f51009de8cc0488898450c384a7080a0"
        }
    ],
    "synonyms": [],
    "m_Precision": 0,
    "m_PreviewExpanded": true,
    "m_DismissedVersion": 0,
    "m_PreviewMode": 0,
    "m_CustomColors": {
        "m_SerializableColors": []
    },
    "m_SerializedDescriptor": "SurfaceDescription.AlphaClipThreshold"
}

{
    "m_SGVersion": 3,
    "m_Type": "UnityEditor.ShaderGraph.Internal.ColorShaderProperty",
    "m_ObjectId": "e7217c8f02414002acaf9a4eb977cb48",
    "m_Guid": {
        "m_GuidSerialized": "de5457b1-a891-4be6-9002-3eed7df44bbe"
    },
    "m_Name": "RedChannelColor",
    "m_DefaultRefNameVersion": 1,
    "m_RefNameGeneratedByDisplayName": "RedChannelColor",
    "m_DefaultReferenceName": "_RedChannelColor",
    "m_OverrideReferenceName": "",
    "m_GeneratePropertyBlock": true,
    "m_UseCustomSlotLabel": false,
    "m_CustomSlotLabel": "",
    "m_DismissedVersion": 0,
    "m_Precision": 0,
    "overrideHLSLDeclaration": false,
    "hlslDeclarationOverride": 0,
    "m_Hidden": false,
    "m_Value": {
        "r": 1.0,
        "g": 0.0,
        "b": 0.0,
        "a": 0.0
    },
    "isMainColor": false,
    "m_ColorMode": 0
}

{
    "m_SGVersion": 0,
    "m_Type": "UnityEditor.ShaderGraph.DynamicVectorMaterialSlot",
    "m_ObjectId": "e775f88091da4a78b1c5eeb13a41347d",
    "m_Id": 0,
    "m_DisplayName": "A",
    "m_SlotType": 0,
    "m_Hidden": false,
    "m_ShaderOutputName": "A",
    "m_StageCapability": 3,
    "m_Value": {
        "x": 0.0,
        "y": 0.0,
        "z": 0.0,
        "w": 0.0
    },
    "m_DefaultValue": {
        "x": 0.0,
        "y": 0.0,
        "z": 0.0,
        "w": 0.0
    }
}

{
    "m_SGVersion": 0,
    "m_Type": "UnityEditor.ShaderGraph.DynamicValueMaterialSlot",
    "m_ObjectId": "e8432a04cba341daa42e1e860c21f876",
    "m_Id": 0,
    "m_DisplayName": "A",
    "m_SlotType": 0,
    "m_Hidden": false,
    "m_ShaderOutputName": "A",
    "m_StageCapability": 3,
    "m_Value": {
        "e00": 0.0,
        "e01": 0.0,
        "e02": 0.0,
        "e03": 0.0,
        "e10": 0.0,
        "e11": 0.0,
        "e12": 0.0,
        "e13": 0.0,
        "e20": 0.0,
        "e21": 0.0,
        "e22": 0.0,
        "e23": 0.0,
        "e30": 0.0,
        "e31": 0.0,
        "e32": 0.0,
        "e33": 0.0
    },
    "m_DefaultValue": {
        "e00": 1.0,
        "e01": 0.0,
        "e02": 0.0,
        "e03": 0.0,
        "e10": 0.0,
        "e11": 1.0,
        "e12": 0.0,
        "e13": 0.0,
        "e20": 0.0,
        "e21": 0.0,
        "e22": 1.0,
        "e23": 0.0,
        "e30": 0.0,
        "e31": 0.0,
        "e32": 0.0,
        "e33": 1.0
    }
}

{
    "m_SGVersion": 0,
    "m_Type": "UnityEditor.ShaderGraph.DotProductNode",
    "m_ObjectId": "eae36dd7bdee409f8bb3c3627f457cc0",
    "m_Group": {
        "m_Id": ""
    },
    "m_Name": "Dot Product",
    "m_DrawState": {
        "m_Expanded": true,
        "m_Position": {
            "serializedVersion": "2",
            "x": -1765.5999755859375,
            "y": -47.199989318847659,
            "width": 208.0,
            "height": 301.5999755859375
        }
    },
    "m_Slots": [
        {
            "m_Id": "e775f88091da4a78b1c5eeb13a41347d"
        },
        {
            "m_Id": "50666b602d334e4f9f7ac09c0be92cc6"
        },
        {
            "m_Id": "d06b68452d304f4f800d60379ad651a3"
        }
    ],
    "synonyms": [
        "scalar product"
    ],
    "m_Precision": 0,
    "m_PreviewExpanded": true,
    "m_DismissedVersion": 0,
    "m_PreviewMode": 0,
    "m_CustomColors": {
        "m_SerializableColors": []
    }
}

{
    "m_SGVersion": 1,
    "m_Type": "UnityEditor.ShaderGraph.SwizzleNode",
    "m_ObjectId": "f0197c5f782a485da1f68da7d3cb2aad",
    "m_Group": {
        "m_Id": ""
    },
    "m_Name": "Swizzle",
    "m_DrawState": {
        "m_Expanded": true,
        "m_Position": {
            "serializedVersion": "2",
            "x": -2157.599853515625,
            "y": -47.199989318847659,
            "width": 207.9998779296875,
            "height": 303.99993896484377
        }
    },
    "m_Slots": [
        {
            "m_Id": "29f8618b091c4831b6bd1b121815748a"
        },
        {
            "m_Id": "dff4f4b475694322aa422bc6321757d4"
        }
    ],
    "synonyms": [
        "swap",
        "reorder",
        "component mask"
    ],
    "m_Precision": 0,
    "m_PreviewExpanded": true,
    "m_DismissedVersion": 0,
    "m_PreviewMode": 0,
    "m_CustomColors": {
        "m_SerializableColors": []
    },
    "_maskInput": "xyz",
    "convertedMask": "xyz"
}

{
    "m_SGVersion": 0,
    "m_Type": "UnityEditor.ShaderGraph.Vector1MaterialSlot",
    "m_ObjectId": "f3f9475890cd4f22a5559b7fd1e406cf",
    "m_Id": 5,
    "m_DisplayName": "G",
    "m_SlotType": 1,
    "m_Hidden": false,
    "m_ShaderOutputName": "G",
    "m_StageCapability": 2,
    "m_Value": 0.0,
    "m_DefaultValue": 0.0,
    "m_Labels": []
}

{
    "m_SGVersion": 0,
    "m_Type": "UnityEditor.ShaderGraph.Vector1MaterialSlot",
    "m_ObjectId": "f51009de8cc0488898450c384a7080a0",
    "m_Id": 0,
    "m_DisplayName": "Alpha Clip Threshold",
    "m_SlotType": 0,
    "m_Hidden": false,
    "m_ShaderOutputName": "AlphaClipThreshold",
    "m_StageCapability": 2,
    "m_Value": 0.5,
    "m_DefaultValue": 0.5,
    "m_Labels": []
}

{
    "m_SGVersion": 1,
    "m_Type": "UnityEditor.Rendering.Universal.ShaderGraph.UniversalTarget",
    "m_ObjectId": "f5aee325225640a999656cc60c9b915c",
    "m_Datas": [],
    "m_ActiveSubTarget": {
        "m_Id": "c620353da29847cda39aa50c6803f6b6"
    },
    "m_AllowMaterialOverride": true,
    "m_SurfaceType": 1,
    "m_ZTestMode": 4,
    "m_ZWriteControl": 0,
    "m_AlphaMode": 0,
    "m_RenderFace": 2,
    "m_AlphaClip": false,
    "m_CastShadows": true,
    "m_ReceiveShadows": true,
    "m_SupportsLODCrossFade": false,
    "m_CustomEditorGUI": "",
    "m_SupportVFX": false
}

{
    "m_SGVersion": 0,
    "m_Type": "UnityEditor.ShaderGraph.UVMaterialSlot",
    "m_ObjectId": "fdb68569a7be49369d6df764cc385830",
    "m_Id": 2,
    "m_DisplayName": "UV",
    "m_SlotType": 0,
    "m_Hidden": false,
    "m_ShaderOutputName": "UV",
    "m_StageCapability": 3,
    "m_Value": {
        "x": 0.0,
        "y": 0.0
    },
    "m_DefaultValue": {
        "x": 0.0,
        "y": 0.0
    },
    "m_Labels": [],
    "m_Channel": 0
}

